-- Merging decision tree log ---
manifest
ADDED from C:\Users\Shaneh Leng\Desktop\AdmitAll\android\app\src\main\AndroidManifest.xml:1:1-26:12
INJECTED from C:\Users\Shaneh Leng\Desktop\AdmitAll\android\app\src\main\AndroidManifest.xml:1:1-26:12
INJECTED from C:\Users\Shaneh Leng\Desktop\AdmitAll\android\app\src\main\AndroidManifest.xml:1:1-26:12
INJECTED from C:\Users\Shaneh Leng\Desktop\AdmitAll\android\app\src\main\AndroidManifest.xml:1:1-26:12
MERGED from [com.facebook.react:react-native:0.57.4] C:\Users\Shaneh Leng\.gradle\caches\transforms-1\files-1.1\react-native-0.57.4.aar\a7681161c4c7706e5e5820d603839bbf\AndroidManifest.xml:2:1-15:12
MERGED from [com.android.support:appcompat-v7:27.1.1] C:\Users\Shaneh Leng\.gradle\caches\transforms-1\files-1.1\appcompat-v7-27.1.1.aar\f8d0b1040d11e594769f9eec2f844b1f\AndroidManifest.xml:17:1-22:12
MERGED from [com.android.support:support-fragment:27.1.1] C:\Users\Shaneh Leng\.gradle\caches\transforms-1\files-1.1\support-fragment-27.1.1.aar\ddf061f407380e2f81fd58fcd70f977f\AndroidManifest.xml:17:1-22:12
MERGED from [com.android.support:animated-vector-drawable:27.1.1] C:\Users\Shaneh Leng\.gradle\caches\transforms-1\files-1.1\animated-vector-drawable-27.1.1.aar\02ffa1549f2a1119133cc2226e8ccf0e\AndroidManifest.xml:17:1-22:12
MERGED from [com.android.support:support-core-ui:27.1.1] C:\Users\Shaneh Leng\.gradle\caches\transforms-1\files-1.1\support-core-ui-27.1.1.aar\30786a1b64a8e0908a2c5a764015af81\AndroidManifest.xml:17:1-22:12
MERGED from [com.android.support:support-core-utils:27.1.1] C:\Users\Shaneh Leng\.gradle\caches\transforms-1\files-1.1\support-core-utils-27.1.1.aar\4961963d5b1a0f7040f33d405aaa5326\AndroidManifest.xml:17:1-22:12
MERGED from [com.android.support:support-vector-drawable:27.1.1] C:\Users\Shaneh Leng\.gradle\caches\transforms-1\files-1.1\support-vector-drawable-27.1.1.aar\64c4c8b5aaca3d5ba050f5ef28700877\AndroidManifest.xml:17:1-22:12
MERGED from [com.android.support:support-compat:27.1.1] C:\Users\Shaneh Leng\.gradle\caches\transforms-1\files-1.1\support-compat-27.1.1.aar\eca022cd52d7636effb99f5bb61ccc47\AndroidManifest.xml:17:1-22:12
MERGED from [com.facebook.fresco:fresco:1.10.0] C:\Users\Shaneh Leng\.gradle\caches\transforms-1\files-1.1\fresco-1.10.0.aar\1ce4b8647f6998ff9b68639748e8c884\AndroidManifest.xml:2:1-9:12
MERGED from [com.facebook.fresco:imagepipeline-okhttp3:1.10.0] C:\Users\Shaneh Leng\.gradle\caches\transforms-1\files-1.1\imagepipeline-okhttp3-1.10.0.aar\9051e4e7ec8ecc156abacf8da39f6ca4\AndroidManifest.xml:2:1-9:12
MERGED from [com.facebook.fresco:drawee:1.10.0] C:\Users\Shaneh Leng\.gradle\caches\transforms-1\files-1.1\drawee-1.10.0.aar\754bdc2d04b644795a61018c117ce501\AndroidManifest.xml:2:1-9:12
MERGED from [com.facebook.fresco:imagepipeline:1.10.0] C:\Users\Shaneh Leng\.gradle\caches\transforms-1\files-1.1\imagepipeline-1.10.0.aar\2ac59f56f3857d041b263ecb508777e4\AndroidManifest.xml:2:1-9:12
MERGED from [com.facebook.fresco:imagepipeline-base:1.10.0] C:\Users\Shaneh Leng\.gradle\caches\transforms-1\files-1.1\imagepipeline-base-1.10.0.aar\4898e17cf318a488f7851a87730d78a1\AndroidManifest.xml:2:1-9:12
MERGED from [com.facebook.soloader:soloader:0.5.1] C:\Users\Shaneh Leng\.gradle\caches\transforms-1\files-1.1\soloader-0.5.1.aar\5cf60d5e681bf972272b40e036a10ea7\AndroidManifest.xml:2:1-13:12
MERGED from [org.webkit:android-jsc:r174650] C:\Users\Shaneh Leng\.gradle\caches\transforms-1\files-1.1\android-jsc-r174650.aar\11d8d7fa6f36d84b42d601f821374edb\AndroidManifest.xml:1:1-3:12
MERGED from [android.arch.lifecycle:livedata-core:1.1.0] C:\Users\Shaneh Leng\.gradle\caches\transforms-1\files-1.1\livedata-core-1.1.0.aar\14300ecf31e90e9aecea4ee85b9451e3\AndroidManifest.xml:17:1-22:12
MERGED from [android.arch.lifecycle:viewmodel:1.1.0] C:\Users\Shaneh Leng\.gradle\caches\transforms-1\files-1.1\viewmodel-1.1.0.aar\1bb94a0c3909541588074bfb40a1ecb5\AndroidManifest.xml:17:1-22:12
MERGED from [com.facebook.fresco:fbcore:1.10.0] C:\Users\Shaneh Leng\.gradle\caches\transforms-1\files-1.1\fbcore-1.10.0.aar\f0cbd3d7deb666d4918e7ff726a001c9\AndroidManifest.xml:2:1-9:12
MERGED from [android.arch.lifecycle:runtime:1.1.0] C:\Users\Shaneh Leng\.gradle\caches\transforms-1\files-1.1\runtime-1.1.0.aar\04267724514bcbc2bb5408c427b2e00a\AndroidManifest.xml:17:1-22:12
MERGED from [android.arch.core:runtime:1.1.0] C:\Users\Shaneh Leng\.gradle\caches\transforms-1\files-1.1\runtime-1.1.0.aar\45e810170ff224ae0dd0421c91159ba9\AndroidManifest.xml:17:1-22:12
INJECTED from C:\Users\Shaneh Leng\Desktop\AdmitAll\android\app\src\main\AndroidManifest.xml:1:1-26:12
INJECTED from C:\Users\Shaneh Leng\Desktop\AdmitAll\android\app\src\main\AndroidManifest.xml:1:1-26:12
INJECTED from C:\Users\Shaneh Leng\Desktop\AdmitAll\android\app\src\main\AndroidManifest.xml:1:1-26:12
	package
		ADDED from C:\Users\Shaneh Leng\Desktop\AdmitAll\android\app\src\main\AndroidManifest.xml:2:5-27
		INJECTED from C:\Users\Shaneh Leng\Desktop\AdmitAll\android\app\src\main\AndroidManifest.xml
		INJECTED from C:\Users\Shaneh Leng\Desktop\AdmitAll\android\app\src\main\AndroidManifest.xml
	android:versionName
		INJECTED from C:\Users\Shaneh Leng\Desktop\AdmitAll\android\app\src\main\AndroidManifest.xml
		ADDED from C:\Users\Shaneh Leng\Desktop\AdmitAll\android\app\src\main\AndroidManifest.xml:1:1-26:12
		INJECTED from C:\Users\Shaneh Leng\Desktop\AdmitAll\android\app\src\main\AndroidManifest.xml
	android:versionCode
		INJECTED from C:\Users\Shaneh Leng\Desktop\AdmitAll\android\app\src\main\AndroidManifest.xml
		ADDED from C:\Users\Shaneh Leng\Desktop\AdmitAll\android\app\src\main\AndroidManifest.xml:1:1-26:12
		INJECTED from C:\Users\Shaneh Leng\Desktop\AdmitAll\android\app\src\main\AndroidManifest.xml
	xmlns:android
		ADDED from C:\Users\Shaneh Leng\Desktop\AdmitAll\android\app\src\main\AndroidManifest.xml:1:11-69
uses-permission#android.permission.INTERNET
ADDED from C:\Users\Shaneh Leng\Desktop\AdmitAll\android\app\src\main\AndroidManifest.xml:4:5-67
	android:name
		ADDED from C:\Users\Shaneh Leng\Desktop\AdmitAll\android\app\src\main\AndroidManifest.xml:4:22-64
uses-permission#android.permission.SYSTEM_ALERT_WINDOW
ADDED from C:\Users\Shaneh Leng\Desktop\AdmitAll\android\app\src\main\AndroidManifest.xml:5:5-77
MERGED from [com.facebook.react:react-native:0.57.4] C:\Users\Shaneh Leng\.gradle\caches\transforms-1\files-1.1\react-native-0.57.4.aar\a7681161c4c7706e5e5820d603839bbf\AndroidManifest.xml:11:5-78
MERGED from [com.facebook.react:react-native:0.57.4] C:\Users\Shaneh Leng\.gradle\caches\transforms-1\files-1.1\react-native-0.57.4.aar\a7681161c4c7706e5e5820d603839bbf\AndroidManifest.xml:11:5-78
	android:name
		ADDED from C:\Users\Shaneh Leng\Desktop\AdmitAll\android\app\src\main\AndroidManifest.xml:5:22-75
application
ADDED from C:\Users\Shaneh Leng\Desktop\AdmitAll\android\app\src\main\AndroidManifest.xml:7:5-24:19
MERGED from [com.facebook.react:react-native:0.57.4] C:\Users\Shaneh Leng\.gradle\caches\transforms-1\files-1.1\react-native-0.57.4.aar\a7681161c4c7706e5e5820d603839bbf\AndroidManifest.xml:13:5-20
MERGED from [com.facebook.react:react-native:0.57.4] C:\Users\Shaneh Leng\.gradle\caches\transforms-1\files-1.1\react-native-0.57.4.aar\a7681161c4c7706e5e5820d603839bbf\AndroidManifest.xml:13:5-20
MERGED from [com.facebook.soloader:soloader:0.5.1] C:\Users\Shaneh Leng\.gradle\caches\transforms-1\files-1.1\soloader-0.5.1.aar\5cf60d5e681bf972272b40e036a10ea7\AndroidManifest.xml:11:5-20
MERGED from [com.facebook.soloader:soloader:0.5.1] C:\Users\Shaneh Leng\.gradle\caches\transforms-1\files-1.1\soloader-0.5.1.aar\5cf60d5e681bf972272b40e036a10ea7\AndroidManifest.xml:11:5-20
MERGED from [org.webkit:android-jsc:r174650] C:\Users\Shaneh Leng\.gradle\caches\transforms-1\files-1.1\android-jsc-r174650.aar\11d8d7fa6f36d84b42d601f821374edb\AndroidManifest.xml:2:3-17
MERGED from [org.webkit:android-jsc:r174650] C:\Users\Shaneh Leng\.gradle\caches\transforms-1\files-1.1\android-jsc-r174650.aar\11d8d7fa6f36d84b42d601f821374edb\AndroidManifest.xml:2:3-17
	android:label
		ADDED from C:\Users\Shaneh Leng\Desktop\AdmitAll\android\app\src\main\AndroidManifest.xml:9:7-39
	android:icon
		ADDED from C:\Users\Shaneh Leng\Desktop\AdmitAll\android\app\src\main\AndroidManifest.xml:10:7-41
	android:allowBackup
		ADDED from C:\Users\Shaneh Leng\Desktop\AdmitAll\android\app\src\main\AndroidManifest.xml:11:7-34
	android:theme
		ADDED from C:\Users\Shaneh Leng\Desktop\AdmitAll\android\app\src\main\AndroidManifest.xml:12:7-38
	android:name
		ADDED from C:\Users\Shaneh Leng\Desktop\AdmitAll\android\app\src\main\AndroidManifest.xml:8:7-38
activity#com.admitall.MainActivity
ADDED from C:\Users\Shaneh Leng\Desktop\AdmitAll\android\app\src\main\AndroidManifest.xml:13:7-22:18
	android:label
		ADDED from C:\Users\Shaneh Leng\Desktop\AdmitAll\android\app\src\main\AndroidManifest.xml:15:9-41
	android:windowSoftInputMode
		ADDED from C:\Users\Shaneh Leng\Desktop\AdmitAll\android\app\src\main\AndroidManifest.xml:17:9-51
	android:configChanges
		ADDED from C:\Users\Shaneh Leng\Desktop\AdmitAll\android\app\src\main\AndroidManifest.xml:16:9-79
	android:name
		ADDED from C:\Users\Shaneh Leng\Desktop\AdmitAll\android\app\src\main\AndroidManifest.xml:14:9-37
intent-filter#action:name:android.intent.action.MAIN+category:name:android.intent.category.LAUNCHER
ADDED from C:\Users\Shaneh Leng\Desktop\AdmitAll\android\app\src\main\AndroidManifest.xml:18:9-21:25
action#android.intent.action.MAIN
ADDED from C:\Users\Shaneh Leng\Desktop\AdmitAll\android\app\src\main\AndroidManifest.xml:19:13-65
	android:name
		ADDED from C:\Users\Shaneh Leng\Desktop\AdmitAll\android\app\src\main\AndroidManifest.xml:19:21-62
category#android.intent.category.LAUNCHER
ADDED from C:\Users\Shaneh Leng\Desktop\AdmitAll\android\app\src\main\AndroidManifest.xml:20:13-73
	android:name
		ADDED from C:\Users\Shaneh Leng\Desktop\AdmitAll\android\app\src\main\AndroidManifest.xml:20:23-70
activity#com.facebook.react.devsupport.DevSettingsActivity
ADDED from C:\Users\Shaneh Leng\Desktop\AdmitAll\android\app\src\main\AndroidManifest.xml:23:7-84
	android:name
		ADDED from C:\Users\Shaneh Leng\Desktop\AdmitAll\android\app\src\main\AndroidManifest.xml:23:17-81
uses-sdk
INJECTED from C:\Users\Shaneh Leng\Desktop\AdmitAll\android\app\src\main\AndroidManifest.xml reason: use-sdk injection requested
INJECTED from C:\Users\Shaneh Leng\Desktop\AdmitAll\android\app\src\main\AndroidManifest.xml
INJECTED from C:\Users\Shaneh Leng\Desktop\AdmitAll\android\app\src\main\AndroidManifest.xml
MERGED from [com.facebook.react:react-native:0.57.4] C:\Users\Shaneh Leng\.gradle\caches\transforms-1\files-1.1\react-native-0.57.4.aar\a7681161c4c7706e5e5820d603839bbf\AndroidManifest.xml:7:5-9:41
MERGED from [com.facebook.react:react-native:0.57.4] C:\Users\Shaneh Leng\.gradle\caches\transforms-1\files-1.1\react-native-0.57.4.aar\a7681161c4c7706e5e5820d603839bbf\AndroidManifest.xml:7:5-9:41
MERGED from [com.android.support:appcompat-v7:27.1.1] C:\Users\Shaneh Leng\.gradle\caches\transforms-1\files-1.1\appcompat-v7-27.1.1.aar\f8d0b1040d11e594769f9eec2f844b1f\AndroidManifest.xml:20:5-44
MERGED from [com.android.support:appcompat-v7:27.1.1] C:\Users\Shaneh Leng\.gradle\caches\transforms-1\files-1.1\appcompat-v7-27.1.1.aar\f8d0b1040d11e594769f9eec2f844b1f\AndroidManifest.xml:20:5-44
MERGED from [com.android.support:support-fragment:27.1.1] C:\Users\Shaneh Leng\.gradle\caches\transforms-1\files-1.1\support-fragment-27.1.1.aar\ddf061f407380e2f81fd58fcd70f977f\AndroidManifest.xml:20:5-44
MERGED from [com.android.support:support-fragment:27.1.1] C:\Users\Shaneh Leng\.gradle\caches\transforms-1\files-1.1\support-fragment-27.1.1.aar\ddf061f407380e2f81fd58fcd70f977f\AndroidManifest.xml:20:5-44
MERGED from [com.android.support:animated-vector-drawable:27.1.1] C:\Users\Shaneh Leng\.gradle\caches\transforms-1\files-1.1\animated-vector-drawable-27.1.1.aar\02ffa1549f2a1119133cc2226e8ccf0e\AndroidManifest.xml:20:5-44
MERGED from [com.android.support:animated-vector-drawable:27.1.1] C:\Users\Shaneh Leng\.gradle\caches\transforms-1\files-1.1\animated-vector-drawable-27.1.1.aar\02ffa1549f2a1119133cc2226e8ccf0e\AndroidManifest.xml:20:5-44
MERGED from [com.android.support:support-core-ui:27.1.1] C:\Users\Shaneh Leng\.gradle\caches\transforms-1\files-1.1\support-core-ui-27.1.1.aar\30786a1b64a8e0908a2c5a764015af81\AndroidManifest.xml:20:5-44
MERGED from [com.android.support:support-core-ui:27.1.1] C:\Users\Shaneh Leng\.gradle\caches\transforms-1\files-1.1\support-core-ui-27.1.1.aar\30786a1b64a8e0908a2c5a764015af81\AndroidManifest.xml:20:5-44
MERGED from [com.android.support:support-core-utils:27.1.1] C:\Users\Shaneh Leng\.gradle\caches\transforms-1\files-1.1\support-core-utils-27.1.1.aar\4961963d5b1a0f7040f33d405aaa5326\AndroidManifest.xml:20:5-44
MERGED from [com.android.support:support-core-utils:27.1.1] C:\Users\Shaneh Leng\.gradle\caches\transforms-1\files-1.1\support-core-utils-27.1.1.aar\4961963d5b1a0f7040f33d405aaa5326\AndroidManifest.xml:20:5-44
MERGED from [com.android.support:support-vector-drawable:27.1.1] C:\Users\Shaneh Leng\.gradle\caches\transforms-1\files-1.1\support-vector-drawable-27.1.1.aar\64c4c8b5aaca3d5ba050f5ef28700877\AndroidManifest.xml:20:5-44
MERGED from [com.android.support:support-vector-drawable:27.1.1] C:\Users\Shaneh Leng\.gradle\caches\transforms-1\files-1.1\support-vector-drawable-27.1.1.aar\64c4c8b5aaca3d5ba050f5ef28700877\AndroidManifest.xml:20:5-44
MERGED from [com.android.support:support-compat:27.1.1] C:\Users\Shaneh Leng\.gradle\caches\transforms-1\files-1.1\support-compat-27.1.1.aar\eca022cd52d7636effb99f5bb61ccc47\AndroidManifest.xml:20:5-44
MERGED from [com.android.support:support-compat:27.1.1] C:\Users\Shaneh Leng\.gradle\caches\transforms-1\files-1.1\support-compat-27.1.1.aar\eca022cd52d7636effb99f5bb61ccc47\AndroidManifest.xml:20:5-44
MERGED from [com.facebook.fresco:fresco:1.10.0] C:\Users\Shaneh Leng\.gradle\caches\transforms-1\files-1.1\fresco-1.10.0.aar\1ce4b8647f6998ff9b68639748e8c884\AndroidManifest.xml:5:5-7:41
MERGED from [com.facebook.fresco:fresco:1.10.0] C:\Users\Shaneh Leng\.gradle\caches\transforms-1\files-1.1\fresco-1.10.0.aar\1ce4b8647f6998ff9b68639748e8c884\AndroidManifest.xml:5:5-7:41
MERGED from [com.facebook.fresco:imagepipeline-okhttp3:1.10.0] C:\Users\Shaneh Leng\.gradle\caches\transforms-1\files-1.1\imagepipeline-okhttp3-1.10.0.aar\9051e4e7ec8ecc156abacf8da39f6ca4\AndroidManifest.xml:5:5-7:41
MERGED from [com.facebook.fresco:imagepipeline-okhttp3:1.10.0] C:\Users\Shaneh Leng\.gradle\caches\transforms-1\files-1.1\imagepipeline-okhttp3-1.10.0.aar\9051e4e7ec8ecc156abacf8da39f6ca4\AndroidManifest.xml:5:5-7:41
MERGED from [com.facebook.fresco:drawee:1.10.0] C:\Users\Shaneh Leng\.gradle\caches\transforms-1\files-1.1\drawee-1.10.0.aar\754bdc2d04b644795a61018c117ce501\AndroidManifest.xml:5:5-7:41
MERGED from [com.facebook.fresco:drawee:1.10.0] C:\Users\Shaneh Leng\.gradle\caches\transforms-1\files-1.1\drawee-1.10.0.aar\754bdc2d04b644795a61018c117ce501\AndroidManifest.xml:5:5-7:41
MERGED from [com.facebook.fresco:imagepipeline:1.10.0] C:\Users\Shaneh Leng\.gradle\caches\transforms-1\files-1.1\imagepipeline-1.10.0.aar\2ac59f56f3857d041b263ecb508777e4\AndroidManifest.xml:5:5-7:41
MERGED from [com.facebook.fresco:imagepipeline:1.10.0] C:\Users\Shaneh Leng\.gradle\caches\transforms-1\files-1.1\imagepipeline-1.10.0.aar\2ac59f56f3857d041b263ecb508777e4\AndroidManifest.xml:5:5-7:41
MERGED from [com.facebook.fresco:imagepipeline-base:1.10.0] C:\Users\Shaneh Leng\.gradle\caches\transforms-1\files-1.1\imagepipeline-base-1.10.0.aar\4898e17cf318a488f7851a87730d78a1\AndroidManifest.xml:5:5-7:41
MERGED from [com.facebook.fresco:imagepipeline-base:1.10.0] C:\Users\Shaneh Leng\.gradle\caches\transforms-1\files-1.1\imagepipeline-base-1.10.0.aar\4898e17cf318a488f7851a87730d78a1\AndroidManifest.xml:5:5-7:41
MERGED from [com.facebook.soloader:soloader:0.5.1] C:\Users\Shaneh Leng\.gradle\caches\transforms-1\files-1.1\soloader-0.5.1.aar\5cf60d5e681bf972272b40e036a10ea7\AndroidManifest.xml:7:5-9:41
MERGED from [com.facebook.soloader:soloader:0.5.1] C:\Users\Shaneh Leng\.gradle\caches\transforms-1\files-1.1\soloader-0.5.1.aar\5cf60d5e681bf972272b40e036a10ea7\AndroidManifest.xml:7:5-9:41
MERGED from [android.arch.lifecycle:livedata-core:1.1.0] C:\Users\Shaneh Leng\.gradle\caches\transforms-1\files-1.1\livedata-core-1.1.0.aar\14300ecf31e90e9aecea4ee85b9451e3\AndroidManifest.xml:20:5-44
MERGED from [android.arch.lifecycle:livedata-core:1.1.0] C:\Users\Shaneh Leng\.gradle\caches\transforms-1\files-1.1\livedata-core-1.1.0.aar\14300ecf31e90e9aecea4ee85b9451e3\AndroidManifest.xml:20:5-44
MERGED from [android.arch.lifecycle:viewmodel:1.1.0] C:\Users\Shaneh Leng\.gradle\caches\transforms-1\files-1.1\viewmodel-1.1.0.aar\1bb94a0c3909541588074bfb40a1ecb5\AndroidManifest.xml:20:5-44
MERGED from [android.arch.lifecycle:viewmodel:1.1.0] C:\Users\Shaneh Leng\.gradle\caches\transforms-1\files-1.1\viewmodel-1.1.0.aar\1bb94a0c3909541588074bfb40a1ecb5\AndroidManifest.xml:20:5-44
MERGED from [com.facebook.fresco:fbcore:1.10.0] C:\Users\Shaneh Leng\.gradle\caches\transforms-1\files-1.1\fbcore-1.10.0.aar\f0cbd3d7deb666d4918e7ff726a001c9\AndroidManifest.xml:5:5-7:41
MERGED from [com.facebook.fresco:fbcore:1.10.0] C:\Users\Shaneh Leng\.gradle\caches\transforms-1\files-1.1\fbcore-1.10.0.aar\f0cbd3d7deb666d4918e7ff726a001c9\AndroidManifest.xml:5:5-7:41
MERGED from [android.arch.lifecycle:runtime:1.1.0] C:\Users\Shaneh Leng\.gradle\caches\transforms-1\files-1.1\runtime-1.1.0.aar\04267724514bcbc2bb5408c427b2e00a\AndroidManifest.xml:20:5-44
MERGED from [android.arch.lifecycle:runtime:1.1.0] C:\Users\Shaneh Leng\.gradle\caches\transforms-1\files-1.1\runtime-1.1.0.aar\04267724514bcbc2bb5408c427b2e00a\AndroidManifest.xml:20:5-44
MERGED from [android.arch.core:runtime:1.1.0] C:\Users\Shaneh Leng\.gradle\caches\transforms-1\files-1.1\runtime-1.1.0.aar\45e810170ff224ae0dd0421c91159ba9\AndroidManifest.xml:20:5-44
MERGED from [android.arch.core:runtime:1.1.0] C:\Users\Shaneh Leng\.gradle\caches\transforms-1\files-1.1\runtime-1.1.0.aar\45e810170ff224ae0dd0421c91159ba9\AndroidManifest.xml:20:5-44
INJECTED from C:\Users\Shaneh Leng\Desktop\AdmitAll\android\app\src\main\AndroidManifest.xml
INJECTED from C:\Users\Shaneh Leng\Desktop\AdmitAll\android\app\src\main\AndroidManifest.xml
	android:targetSdkVersion
		INJECTED from C:\Users\Shaneh Leng\Desktop\AdmitAll\android\app\src\main\AndroidManifest.xml
		ADDED from C:\Users\Shaneh Leng\Desktop\AdmitAll\android\app\src\main\AndroidManifest.xml
		INJECTED from C:\Users\Shaneh Leng\Desktop\AdmitAll\android\app\src\main\AndroidManifest.xml
	android:minSdkVersion
		INJECTED from C:\Users\Shaneh Leng\Desktop\AdmitAll\android\app\src\main\AndroidManifest.xml
		ADDED from C:\Users\Shaneh Leng\Desktop\AdmitAll\android\app\src\main\AndroidManifest.xml
		INJECTED from C:\Users\Shaneh Leng\Desktop\AdmitAll\android\app\src\main\AndroidManifest.xml
uses-permission#android.permission.WRITE_EXTERNAL_STORAGE
IMPLIED from C:\Users\Shaneh Leng\Desktop\AdmitAll\android\app\src\main\AndroidManifest.xml:1:1-26:12 reason: org.webkit.android_jsc has a targetSdkVersion < 4
uses-permission#android.permission.READ_PHONE_STATE
IMPLIED from C:\Users\Shaneh Leng\Desktop\AdmitAll\android\app\src\main\AndroidManifest.xml:1:1-26:12 reason: org.webkit.android_jsc has a targetSdkVersion < 4
uses-permission#android.permission.READ_EXTERNAL_STORAGE
IMPLIED from C:\Users\Shaneh Leng\Desktop\AdmitAll\android\app\src\main\AndroidManifest.xml:1:1-26:12 reason: org.webkit.android_jsc requested WRITE_EXTERNAL_STORAGE
